ISSS624 - Hands-on Exercise 1.2
…
popdata2020 <- popdata %>% 
  filter(Time == 2020) %>% 
  group_by(PA, SZ, AG) %>% 
  summarise(POP = sum(Pop)) %>% 
  ungroup() %>% 
  pivot_wider(names_from = AG,
              values_from = POP)

`summarise()` has grouped output by 'PA', 'SZ'. You can override using the
`.groups` argument.

popdata2020

# A tibble: 332 × 21
   PA      SZ    0_to_…¹ 10_to…² 15_to…³ 20_to…⁴ 25_to…⁵ 30_to…⁶ 35_to…⁷ 40_to…⁸
   <chr>   <chr>   <dbl>   <dbl>   <dbl>   <dbl>   <dbl>   <dbl>   <dbl>   <dbl>
 1 Ang Mo… Ang …     170     280     340     270     260     310     330     400
 2 Ang Mo… Chen…    1060    1040    1160    1330    1720    2020    2150    2080
 3 Ang Mo… Chon…     850    1020    1070    1310    1610    1890    1720    1810
 4 Ang Mo… Kebu…     680     960    1010    1170    1410    1420    1440    1630
 5 Ang Mo… Semb…     210     400     450     500     500     340     300     370
 6 Ang Mo… Shan…     560     640     700     860     970    1030     980    1010
 7 Ang Mo… Tago…     200     390     460     590     680     500     330     430
 8 Ang Mo… Town…     670     930     830     890    1310    1410    1420    1640
 9 Ang Mo… Yio …       0       0       0       0       0       0       0       0
10 Ang Mo… Yio …     160     210     260     300     320     240     250     260
# … with 322 more rows, 11 more variables: `45_to_49` <dbl>, `5_to_9` <dbl>,
#   `50_to_54` <dbl>, `55_to_59` <dbl>, `60_to_64` <dbl>, `65_to_69` <dbl>,
#   `70_to_74` <dbl>, `75_to_79` <dbl>, `80_to_84` <dbl>, `85_to_89` <dbl>,
#   `90_and_over` <dbl>, and abbreviated variable names ¹​`0_to_4`, ²​`10_to_14`,
#   ³​`15_to_19`, ⁴​`20_to_24`, ⁵​`25_to_29`, ⁶​`30_to_34`, ⁷​`35_to_39`,
#   ⁸​`40_to_44`
…
TOTAL: all age group, and

DEPENDENCY: the ratio between young and aged against economy active group

popdata2020 <- popdata2020 %>% 
  mutate(YOUNG = rowSums(.[3:6]) + rowSums(.[12])) %>% 
  mutate(ECONOMY_ACTIVE = rowSums(.[7:11]) + rowSums(.[13:15])) %>% 
  mutate(AGED = rowSums(.[16:21])) %>% 
  mutate(TOTAL = rowSums(.[3:21])) %>% 
  mutate(DEPENDENCY = (YOUNG + AGED)/ECONOMY_ACTIVE) %>% 
  select(PA, SZ, YOUNG, ECONOMY_ACTIVE, AGED, TOTAL, DEPENDENCY)
popdata2020

# A tibble: 332 × 7
   PA         SZ                     YOUNG ECONOMY_ACTIVE  AGED TOTAL DEPENDENCY
   <chr>      <chr>                  <dbl>          <dbl> <dbl> <dbl>      <dbl>
 1 Ang Mo Kio Ang Mo Kio Town Centre  1290           2760   760  4810      0.743
 2 Ang Mo Kio Cheng San               5640          16460  6050 28150      0.710
 3 Ang Mo Kio Chong Boon              5100          15000  6470 26570      0.771
 4 Ang Mo Kio Kebun Bahru             4620          13010  5120 22750      0.749
 5 Ang Mo Kio Sembawang Hills         1880           3630  1310  6820      0.879
 6 Ang Mo Kio Shangri-La              3330           9050  3610 15990      0.767
 7 Ang Mo Kio Tagore                  1940           4480  1530  7950      0.775
 8 Ang Mo Kio Townsville              4190          11950  5100 21240      0.777
 9 Ang Mo Kio Yio Chu Kang               0              0     0     0    NaN    
10 Ang Mo Kio Yio Chu Kang East       1110           2410   750  4270      0.772
# … with 322 more rows
…
Warning: `funs()` was deprecated in dplyr 0.8.0.
ℹ Please use a list of either functions or lambdas:

# Simple named list: list(mean = mean, median = median)

# Auto named with `tibble::lst()`: tibble::lst(mean, median)

# Using lambdas list(~ mean(., trim = .2), ~ median(., na.rm = TRUE))

popdata2020

# A tibble: 234 × 7
   PA         SZ                     YOUNG ECONOMY_ACTIVE  AGED TOTAL DEPENDENCY
   <chr>      <chr>                  <dbl>          <dbl> <dbl> <dbl>      <dbl>
 1 ANG MO KIO ANG MO KIO TOWN CENTRE  1290           2760   760  4810      0.743
 2 ANG MO KIO CHENG SAN               5640          16460  6050 28150      0.710
 3 ANG MO KIO CHONG BOON              5100          15000  6470 26570      0.771
 4 ANG MO KIO KEBUN BAHRU             4620          13010  5120 22750      0.749
 5 ANG MO KIO SEMBAWANG HILLS         1880           3630  1310  6820      0.879
 6 ANG MO KIO SHANGRI-LA              3330           9050  3610 15990      0.767
 7 ANG MO KIO TAGORE                  1940           4480  1530  7950      0.775
 8 ANG MO KIO TOWNSVILLE              4190          11950  5100 21240      0.777
 9 ANG MO KIO YIO CHU KANG EAST       1110           2410   750  4270      0.772
10 ANG MO KIO YIO CHU KANG WEST       5690          13750  4680 24120      0.754
# … with 224 more rows
…
